{
  "c37tqjPw5i5722sFKY0A": {
    "JOKAM": 4,
    "anerag": 1,
    "TinggiAlami": 5,
    "BerlianBeku": 5,
    "JessTidakBatas": 3,
    "oranggila": 2
  },
  "kWOBb5n20zg9PGlHNZ2p": {
    "JOKAM": 1
  },
  "QtkwUYDAZDJ0ITDx4yp8": {
    "anerag": 5
  }
}
